{"title":"env","url":"https:\/\/gitee.com\/hipye\/st\/raw\/master\/env.sh","order":1}
{"title":"豌豆荚","url":"https:\/\/m.wandoujia.com\/","order":2}
{"title":"127.0.0.1:1313","url":"http:\/\/127.0.0.1:1313\/","order":3}
{"title":"用户脚本","url":"https:\/\/greasyfork.org\/zh-CN\/scripts","order":4}
